…
reviews: the number of reviews for that movie

rating: IMDB average rating

Observe dataframe

From skim, we can see that there no missing values. Groovy. But less straightforward to deduce is the fact that there are duplicates. There is a difference between Number of rows and n_unique = 2961 - 2907 = 54 duplicates. They ought to be removed.

Remove duplicates

# remove duplicates
movies %>% 
  distinct(title)

## # A tibble: 2,907 x 1
##    title                                    
##    <chr>                                    
##  1 Avatar                                   
##  2 Titanic                                  
##  3 Jurassic World                           
##  4 The Avengers                             
##  5 The Dark Knight                          
##  6 Star Wars: Episode I - The Phantom Menace
##  7 Star Wars: Episode IV - A New Hope       
##  8 Avengers: Age of Ultron                  
##  9 The Dark Knight Rises                    
## 10 Shrek 2                                  
## # ... with 2,897 more rows
…
